[11-Oct-2022 09:56:52 Europe/Kiev] PHP Fatal error:  require_once(): Failed opening required 'DIR_FUNCTIONSfs_mini_services.php' (include_path='.:/usr/share/pear:/usr/share/php') in /home/gibservice/public_html/func_math.php on line 12
[11-Oct-2022 09:56:59 Europe/Kiev] PHP Fatal error:  require_once(): Failed opening required 'DIR_FUNCTIONSfs_mini_services.php' (include_path='.:/usr/share/pear:/usr/share/php') in /home/gibservice/public_html/func_math.php on line 12
[11-Oct-2022 09:57:02 Europe/Kiev] PHP Fatal error:  require_once(): Failed opening required 'DIR_FUNCTIONSfs_mini_services.php' (include_path='.:/usr/share/pear:/usr/share/php') in /home/gibservice/public_html/func_math.php on line 12
[11-Oct-2022 09:57:03 Europe/Kiev] PHP Fatal error:  require_once(): Failed opening required 'DIR_FUNCTIONSfs_mini_services.php' (include_path='.:/usr/share/pear:/usr/share/php') in /home/gibservice/public_html/func_math.php on line 12
[11-Oct-2022 09:57:16 Europe/Kiev] PHP Fatal error:  require_once(): Failed opening required 'DIR_FUNCTIONSfs_mini_services.php' (include_path='.:/usr/share/pear:/usr/share/php') in /home/gibservice/public_html/func_math.php on line 12
[11-Oct-2022 09:57:29 Europe/Kiev] PHP Fatal error:  require_once(): Failed opening required 'DIR_FUNCTIONSfs_mini_services.php' (include_path='.:/usr/share/pear:/usr/share/php') in /home/gibservice/public_html/func_math.php on line 12
[11-Oct-2022 10:07:31 Europe/Kiev] PHP Fatal error:  require_once(): Failed opening required 'DIR_FUNCTIONSfs_mini_services.php' (include_path='.:/usr/share/pear:/usr/share/php') in /home/gibservice/public_html/func_math.php on line 12
[11-Oct-2022 10:07:35 Europe/Kiev] PHP Fatal error:  require_once(): Failed opening required 'DIR_FUNCTIONSfs_mini_services.php' (include_path='.:/usr/share/pear:/usr/share/php') in /home/gibservice/public_html/func_math.php on line 12
